{
  "type": "service_account",
  "project_id": "calm-analog-154820",
  "private_key_id": "74de38f7ab75bd6c98f9921114ca696dd59ac149",
  "private_key": "-----BEGIN PRIVATE KEY-----\nMIIEvgIBADANBgkqhkiG9w0BAQEFAASCBKgwggSkAgEAAoIBAQDMc1RxK8rzTPFU\nf24wEPubMxl7ykwyMuTKMMI9XwuJ7+3ybqsJYSZYfkv8Ihp53vXVg1CRGfSTIzkx\nWVKxXqTgyg3XDV7AnsacC/ObEeBd8hLp1GvRkRqmv8Q7uFlCczQeXBELb+lTqNrr\nto7S0jEbvuIVtPYRiF5RnIg+9NyRiN//njiSoNDVbm/GUDYfS1/9opKfxw/3mazW\nfq2iBWVrUtyLmjWyGhS82KaIIcSDlSKMhY4uHnxnlU+JNdg0lAy5pWe5BhTVGBJZ\n2SW0ime91cd2u7tWHjm7jXRwpHmgVIXkwGlEC7c8yp6IRE0oJtDDUi3GG5bFw7TE\nSR1irkrTAgMBAAECggEAGjoFMAtVGobZQmSiZuoWzJ7uevHFen8K2GEO2b6ShVxQ\n4tONf0OGHr3801gwm0eds4kH0cVJmYJgONNjhztD3U4uHlMpv33erm/eDRtq88I0\n6OgF+LkreQ6KhrqsQJj0q5xV12jAvqmfg7NEeQjbodqHuA8hrbgXmVKCK8lPbh+t\nIfx8RiEHX3asTz89gHKjxSkIilWJkwQ0MyrXL1r5TpSD/OwyWelVAURGA9cg59qF\nRIkIdfzOuk2Sbz9JkfFtiFu0kVln3PLyf0bfQWcaDiGmarlGUhhNiitu3CKvX+8m\n0SQ/yvgSPwPWuEwsr5NxHXBvOEANYFxzjaWwzsxLYQKBgQDmWXhH5Va9K7ZdtcVY\nLgEWRhBCLc7nAN6Cmo6+FXckwCHnYt3w/dkoP2UkxwFsLLrtEihdywvXDdqw0rgo\nfh5C0qEx5ZkNADpAh25WPCCTZRq1d3fOkUFoBEuO0PpDxKuPM5SkcHqArcB5nCTL\noFkxi27whna7X9Il5ry9ACX60QKBgQDjN4/+DnqpOO2ExngluX//HmElMZ/a/ir5\nSdJTqlTsi/RAeyj/+SxnCU2l3Zfu433g2nzzByoCpf/IIaflkr3KVdHYzAbz936t\nfL9yjnq3OoCG8oQNjaLh5rsmtdEFBsr0Ttfg/J57rfHSdRgTlIcbdhT5z0Wt3JXP\n91z7LpSMYwKBgQCxaqXe0kA9kaZzhOZLpZtGuY4aOsgKWjwHYd2hgEz07FrwqdCB\npjMU8ccITZLF66nJoNugahxjdhNDb/lRjtnl4+8tzEZWoh87xlPwbX01qYCp1itb\n2bsDz5MWm9S2T4tHz5WkFdH0vF7sC5y3jXhFVbyL2zUl2oa0lIQ4Gh4mkQKBgAKN\nPTC9OONtoD09fVvvGWDkFnM0e3caI6FpEtOdthZx++w9ddhqE/WURSr3sh0csO01\nhvGzwuUEuDqnJhuN6lO7Yv/sSqeyv9ly7TN8JiSoo4jgcFs2m/2teayVniNQUDcu\nK357V8xLx8t1RS/zGxFT4ihsC3xIXeZYANNRUpnBAoGBAL4u9iuJ2jh8WBmaf6NY\nnYafZfKCuq5UVOUi8RfYuCkJu1kWJOlvYuB7FNg/LGIV3rvP03FavjQEwJxJPIN7\nXoGZPJWusY37AVoMB2S3NzNhFCK0H5/G1sgQ9m/tcTZeaoRWQ1NWNHt5nI27Gqip\n2pKRwlb87bGbnz9PlUA+tvOE\n-----END PRIVATE KEY-----\n",
  "client_email": "lead-developer@calm-analog-154820.iam.gserviceaccount.com",
  "client_id": "106889190736493187933",
  "auth_uri": "https://accounts.google.com/o/oauth2/auth",
  "token_uri": "https://accounts.google.com/o/oauth2/token",
  "auth_provider_x509_cert_url": "https://www.googleapis.com/oauth2/v1/certs",
  "client_x509_cert_url": "https://www.googleapis.com/robot/v1/metadata/x509/lead-developer%40calm-analog-154820.iam.gserviceaccount.com"
}
